Year,Electricity (TWh),LowTemperatureHeat (TWh),HighTemperatureHeat (TWh),Transport (Tm)
1990,14.99107,0.129093,7.046617,22.780844
1991,15.82843,0.132582,6.752378,27.339804
1992,16.73557,0.137234,4.538026,26.49314
1993,18.0265,0.148864,4.712476,26.314038
1994,19.78263,0.158168,4.854362,28.570258
1995,21.18986,0.154679,4.229831,31.35448
1996,22.93436,0.147701,4.283329,28.712144
1997,25.67904,0.140723,5.057887,28.509782
1998,27.0979,0.133745,3.983275,28.665624
1999,28.19112,0.126767,3.920473,29.033132
2000,30.21474,1.474684,16.109876,29.589046
2001,30.79624,1.55842,16.87513,30.184502
2002,32.07554,1.642156,17.942764,30.137982
2003,33.07572,1.964307,20.469963,30.161242
2004,34.32013,2.177136,22.397054,30.789262
2005,35.80877,2.350423,23.572847,36.143714
2006,37.14622,2.451604,24.227616,37.5649
2007,38.64649,2.578371,25.856979,38.930262
2008,39.26288,2.680715,26.894375,40.11187
2009,38.86746,3.776261,36.905479,44.187022
2010,41.96104,4.363576,42.261094,48.40406
2011,42.61232,4.661304,44.870866,51.795368
2012,43.76369,4.551982,43.898598,51.292952
2013,44.49638,4.899719,47.144531,50.222992
2014,45.9385,4.812494,46.138536,49.33446
2015,47.07824,4.892741,46.907279,48.0319
2016,48.05516,5.127667,49.149543,48.04353